id,name,model_id:id,group_id:id,perm_read,perm_write,perm_create,perm_unlink



school_meal_admin,                 school.meal.group_school_administration,model_school_meal,genext_school.group_school_administration,1,1,1,1
school_meal_type_admin,            school.meal.type.group_school_administration,model_school_meal_type,genext_school.group_school_administration,1,1,1,1
school_menu_admin,                 school.menu.group_school_administration,model_school_menu,genext_school.group_school_administration,1,1,1,1
school_menu_line_admin,            school.menu.line.group_school_administration,model_school_menu_line,genext_school.group_school_administration,1,1,1,1
school_reservation_admin,          school.reservation.group_school_administration,model_school_reservation,genext_school.group_school_administration,1,1,1,1
school_reservation_type_admin,     school.reservation.type.group_school_administration,model_school_reservation_type,genext_school.group_school_administration,1,1,1,1



school_meal_parent,                 school.meal.group_school_parent,model_school_meal,genext_school.group_school_parent,1,1,1,1
school_meal_type_parent,            school.meal.type.group_school_parent,model_school_meal_type,genext_school.group_school_parent,1,1,1,1
school_menu_parent,                 school.menu.group_school_parent,model_school_menu,genext_school.group_school_parent,1,1,1,1
school_menu_line_parent,            school.menu.line.group_school_parent,model_school_menu_line,genext_school.group_school_parent,1,1,1,1
school_reservation_parent,          school.reservation.group_school_parent,model_school_reservation,genext_school.group_school_parent,1,1,1,1
school_reservation_type_parent,     school.reservation.type.group_school_parent,model_school_reservation_type,genext_school.group_school_parent,1,1,1,1



